SANDHU R, 1990, P IFIP WG 11 3 WORKS
SANDHU RS, 1990, P IFIP WG 11 3 WORKS

SANDHU R, 1990, P IFIP WG11 3 WORKSH
SANDHU RS, 1990, P IFIP WG11 3 WORKSH, P179

SANDHU R, 1993, COMPUTER, V26
SANDHU RS, 1993, COMPUTER, V26, P9

SANDHU R, 1994, HDB INFORMATION SECU, P145
SANDHU RS, 1994, HDB INFORM SECURITY

SANDHU R, 1994, P 10 ANN COMP SEC AP
SANDHU RS, 1994, P 10 ANN COMP SEC AP, P54

SANDHU R, 1994, P 17 NAT COMP SEC C, P34
SANDHU RS, 1994, P 17 NAT COMP SEC C

SANDHU R, 1996, ACM COMPUT SURV, V28, P241
SANDHU R, 1996, ACM COMPUTING SURVEY, V28

SANDHU R, 1996, COMPUTER, V29
SANDHU RS, 1996, COMPUTER, V29
SANDHU RS, 1996, COMPUTER, V29, P38

SANDHU R, 1996, IEEE COMPUT, V29
SANDHU R, 1996, IEEE COMPUT, V29, P20
SANDHU R, 1996, IEEE COMPUTER
SANDHU R, 1996, IEEE COMPUTER, V29
SANDHU RS, 1996, IEEE COMPUT, V29, P2
SANDHU RS,1996,IEEE COMPUT,V29,P2,DOI 10.1109/2.485845
SANDHU RS, 1996, IEEE COMPUTER
SANDHU RS, 1996, IEEE COMPUTER, V29

SANDHU R, 1996, IEEE COMPUTER    FEB, P29
SANDHU R, 1996, IEEE COMPUTER    FEB, V29

SANDHU RS, 1992, DATABASE SECURITY, V5, P297
SANDHU, 1992, DATABASE SECURITY, V5

SANDHU RS, 1993, HDB INFORM SECURITY
SANDHU RS, 1993, HDB INFORMATION SECU

SANDHU R, 1993, IEEE COMPUT, V26
SANDHU R, 1993, IEEE COMPUT, V26, P11
SANDHU RS, 1993, IEEE COMPUTER, V26

SANDHU RS, 1994, IEEE COMMUN MAG, V32, P40
SANDHU RS, 1994, IEEE COMMUNICATION M, V32

